%TF.GenerationSoftware,KiCad,Pcbnew,(5.1.7)-1*%
%TF.CreationDate,2021-02-03T11:37:42+01:00*%
%TF.ProjectId,Yet Another Reflow oven,59657420-416e-46f7-9468-657220526566,rev?*%
%TF.SameCoordinates,Original*%
%TF.FileFunction,Soldermask,Bot*%
%TF.FilePolarity,Negative*%
%FSLAX46Y46*%
G04 Gerber Fmt 4.6, Leading zero omitted, Abs format (unit mm)*
G04 Created by KiCad (PCBNEW (5.1.7)-1) date 2021-02-03 11:37:42*
%MOMM*%
%LPD*%
G01*
G04 APERTURE LIST*
%ADD10C,1.600000*%
%ADD11C,3.000000*%
%ADD12R,3.000000X3.000000*%
%ADD13O,1.700000X1.700000*%
%ADD14R,1.700000X1.700000*%
%ADD15O,1.600000X1.600000*%
%ADD16C,5.500000*%
%ADD17C,1.524000*%
%ADD18C,2.300000*%
%ADD19R,2.000000X2.300000*%
%ADD20R,1.600000X1.600000*%
G04 APERTURE END LIST*
%TO.C,R3*%
G36*
G01*
X125715480Y-70089480D02*
X125715480Y-70089480D01*
G75*
G02*
X124584110Y-70089480I-565685J565685D01*
G01*
X124584110Y-70089480D01*
G75*
G02*
X124584110Y-68958110I565685J565685D01*
G01*
X124584110Y-68958110D01*
G75*
G02*
X125715480Y-68958110I565685J-565685D01*
G01*
X125715480Y-68958110D01*
G75*
G02*
X125715480Y-70089480I-565685J-565685D01*
G01*
G37*
D10*
X132334000Y-76708000D03*
%TD*%
D11*
%TO.C,J2*%
X105664000Y-93599000D03*
D12*
X105664000Y-88519000D03*
%TD*%
D13*
%TO.C,ThermoCouple2*%
X155575000Y-81026000D03*
X155575000Y-78486000D03*
X155575000Y-75946000D03*
X155575000Y-73406000D03*
D14*
X155575000Y-70866000D03*
%TD*%
D13*
%TO.C,ThermoCouple1*%
X155575000Y-97409000D03*
X155575000Y-94869000D03*
X155575000Y-92329000D03*
X155575000Y-89789000D03*
D14*
X155575000Y-87249000D03*
%TD*%
D15*
%TO.C,R2*%
X149098000Y-73406000D03*
D10*
X138938000Y-73406000D03*
%TD*%
D15*
%TO.C,R1*%
X149098000Y-89789000D03*
D10*
X138938000Y-89789000D03*
%TD*%
D13*
%TO.C,J3*%
X105156000Y-80645000D03*
X105156000Y-78105000D03*
X105156000Y-75565000D03*
D14*
X105156000Y-73025000D03*
%TD*%
D16*
%TO.C,H4*%
X154813000Y-123825000D03*
%TD*%
%TO.C,H3*%
X154813000Y-38481000D03*
%TD*%
%TO.C,H2*%
X106934000Y-123825000D03*
%TD*%
%TO.C,H1*%
X106934000Y-38481000D03*
%TD*%
D17*
%TO.C,U1*%
X148717000Y-65659000D03*
X146177000Y-65659000D03*
X143637000Y-65659000D03*
X141097000Y-65659000D03*
X138557000Y-65659000D03*
X136017000Y-65659000D03*
X133477000Y-65659000D03*
X130937000Y-65659000D03*
X128397000Y-65659000D03*
X125857000Y-65659000D03*
X123317000Y-65659000D03*
X120777000Y-65659000D03*
X118237000Y-65659000D03*
X115697000Y-65659000D03*
X113157000Y-65659000D03*
X113157000Y-37719000D03*
X115697000Y-37719000D03*
X118237000Y-37719000D03*
X120777000Y-37719000D03*
X123317000Y-37719000D03*
X125857000Y-37719000D03*
X128397000Y-37719000D03*
X130937000Y-37719000D03*
X133477000Y-37719000D03*
X136017000Y-37719000D03*
X138557000Y-37719000D03*
X141097000Y-37719000D03*
X143637000Y-37719000D03*
X146177000Y-37719000D03*
X148717000Y-37719000D03*
%TD*%
D18*
%TO.C,PS1*%
X128945000Y-82233000D03*
X123745000Y-111633000D03*
D19*
X118745000Y-111633000D03*
D18*
X113545000Y-82233000D03*
%TD*%
D11*
%TO.C,J1*%
X126365000Y-123190000D03*
X121285000Y-123190000D03*
D12*
X116205000Y-123190000D03*
%TD*%
D10*
%TO.C,C1*%
X119927380Y-73533000D03*
D20*
X122427380Y-73533000D03*
%TD*%
M02*
