%TF.GenerationSoftware,KiCad,Pcbnew,(5.1.7)-1*%
%TF.CreationDate,2021-02-03T11:37:42+01:00*%
%TF.ProjectId,Yet Another Reflow oven,59657420-416e-46f7-9468-657220526566,rev?*%
%TF.SameCoordinates,Original*%
%TF.FileFunction,Profile,NP*%
%FSLAX46Y46*%
G04 Gerber Fmt 4.6, Leading zero omitted, Abs format (unit mm)*
G04 Created by KiCad (PCBNEW (5.1.7)-1) date 2021-02-03 11:37:42*
%MOMM*%
%LPD*%
G01*
G04 APERTURE LIST*
%TA.AperFunction,Profile*%
%ADD10C,0.100000*%
%TD*%
%TA.AperFunction,Profile*%
%ADD11C,0.050000*%
%TD*%
G04 APERTURE END LIST*
D10*
X152781000Y-100457000D02*
X152781000Y-109728000D01*
X104013000Y-100457000D02*
X152781000Y-100457000D01*
X104013000Y-109728000D02*
X104013000Y-100457000D01*
X152781000Y-109728000D02*
X104013000Y-109728000D01*
D11*
X159893000Y-129032000D02*
X101981000Y-129032000D01*
X159893000Y-34290000D02*
X159893000Y-129032000D01*
X101981000Y-34290000D02*
X159893000Y-34290000D01*
X101981000Y-129032000D02*
X101981000Y-34290000D01*
M02*
