{
	"profile_name": "Kester Reflow Profile (Sn63Pb37 or Sn62Pb36Ag02)",
	"profile_duration": 300.0,
	"set_points" : [
	    { 
			"temperature": 20,
			"duration": 0.0
		},
		{
			"temperature": 120.0,
			"duration": 90.0
		},
		{
			"temperature": 165.0,
			"duration": 30.0
		},
		{
			"temperature": 182.0,
			"duration": 120.0
		},
		{
			"temperature": 210.0,
			"duration": 30.0
		},
		{
			"temperature": 182.0,
			"duration": 30.0
		},
		{
			"temperature": 150.0,
			"duration": 30.0
		}
	]
}