EESchema Schematic File Version 4
EELAYER 30 0
EELAYER END
$Descr A4 11693 8268
encoding utf-8
Sheet 1 1
Title ""
Date ""
Rev ""
Comp ""
Comment1 ""
Comment2 ""
Comment3 ""
Comment4 ""
$EndDescr
$Comp
L ESP8266:NodeMCU_1.0_(ESP-12E) U1
U 1 1 600700F7
P 4500 3800
F 0 "U1" H 4500 4993 60  0000 C CNN
F 1 "NodeMCU_1.0_(ESP-12E)" H 4500 4887 60  0000 C CNN
F 2 "ESP8266:NodeMCU1.0(12-E)" H 4500 4781 60  0000 C CNN
F 3 "" H 3900 2950 60  0000 C CNN
	1    4500 3800
	1    0    0    -1  
$EndComp
$Comp
L Converter_ACDC:HLK-PM03 PS1
U 1 1 60078C89
P 7750 4800
F 0 "PS1" H 7750 5125 50  0000 C CNN
F 1 "HLK-PM03" H 7750 5034 50  0000 C CNN
F 2 "Converter_ACDC:Converter_ACDC_HiLink_HLK-PMxx" H 7750 4500 50  0001 C CNN
F 3 "http://www.hlktech.net/product_detail.php?ProId=59" H 8150 4450 50  0001 C CNN
	1    7750 4800
	1    0    0    -1  
$EndComp
Text GLabel 3700 3100 0    50   Input ~ 0
A0
Text GLabel 5300 3300 2    50   Input ~ 0
T2
Text GLabel 5300 3200 2    50   Input ~ 0
T1
$Comp
L Connector:Screw_Terminal_01x03 J1
U 1 1 6008F7E9
P 6800 4800
F 0 "J1" H 6718 5025 50  0000 C CNN
F 1 "Screw_Terminal_01x03" H 6718 4566 50  0001 C CNN
F 2 "TerminalBlock:TerminalBlock_bornier-3_P5.08mm" H 6800 4800 50  0001 C CNN
F 3 "~" H 6800 4800 50  0001 C CNN
	1    6800 4800
	-1   0    0    -1  
$EndComp
Wire Wire Line
	7350 4900 7000 4900
Wire Wire Line
	7100 4800 7100 5000
$Comp
L power:Earth #PWR0101
U 1 1 60092D40
P 7150 4350
F 0 "#PWR0101" H 7150 4100 50  0001 C CNN
F 1 "Earth" H 7150 4200 50  0001 C CNN
F 2 "" H 7150 4350 50  0001 C CNN
F 3 "~" H 7150 4350 50  0001 C CNN
	1    7150 4350
	1    0    0    -1  
$EndComp
$Comp
L power:GND #PWR0102
U 1 1 600934A0
P 7300 4350
F 0 "#PWR0102" H 7300 4100 50  0001 C CNN
F 1 "GND" H 7305 4177 50  0000 C CNN
F 2 "" H 7300 4350 50  0001 C CNN
F 3 "" H 7300 4350 50  0001 C CNN
	1    7300 4350
	1    0    0    -1  
$EndComp
$Comp
L power:+3V3 #PWR0103
U 1 1 60096C06
P 8250 4600
F 0 "#PWR0103" H 8250 4450 50  0001 C CNN
F 1 "+3V3" H 8265 4773 50  0000 C CNN
F 2 "" H 8250 4600 50  0001 C CNN
F 3 "" H 8250 4600 50  0001 C CNN
	1    8250 4600
	1    0    0    -1  
$EndComp
$Comp
L power:GND #PWR0104
U 1 1 6009830D
P 8250 5000
F 0 "#PWR0104" H 8250 4750 50  0001 C CNN
F 1 "GND" H 8255 4827 50  0000 C CNN
F 2 "" H 8250 5000 50  0001 C CNN
F 3 "" H 8250 5000 50  0001 C CNN
	1    8250 5000
	1    0    0    -1  
$EndComp
Wire Wire Line
	8150 4900 8250 4900
Wire Wire Line
	8250 4900 8250 5000
Wire Wire Line
	8150 4700 8250 4700
Wire Wire Line
	8250 4700 8250 4600
$Comp
L power:Earth #PWR0105
U 1 1 600915EA
P 7100 5000
F 0 "#PWR0105" H 7100 4750 50  0001 C CNN
F 1 "Earth" H 7100 4850 50  0001 C CNN
F 2 "" H 7100 5000 50  0001 C CNN
F 3 "~" H 7100 5000 50  0001 C CNN
	1    7100 5000
	1    0    0    -1  
$EndComp
Wire Notes Line
	8400 5250 6250 5250
Wire Notes Line
	6250 5250 6250 3950
Wire Notes Line
	6250 3950 8400 3950
Wire Notes Line
	8400 3950 8400 5250
Text Notes 6350 4250 0    50   ~ 0
230V AC into 3.3V DC, with the GND connected to \nthe Earth to prevent 90V AC from being on GND
$Comp
L power:+3V3 #PWR0106
U 1 1 6009EF40
P 5450 3600
F 0 "#PWR0106" H 5450 3450 50  0001 C CNN
F 1 "+3V3" H 5465 3773 50  0000 C CNN
F 2 "" H 5450 3600 50  0001 C CNN
F 3 "" H 5450 3600 50  0001 C CNN
	1    5450 3600
	1    0    0    -1  
$EndComp
Wire Wire Line
	5300 3600 5450 3600
$Comp
L power:GND #PWR0107
U 1 1 6009FF3A
P 5800 3700
F 0 "#PWR0107" H 5800 3450 50  0001 C CNN
F 1 "GND" H 5805 3527 50  0000 C CNN
F 2 "" H 5800 3700 50  0001 C CNN
F 3 "" H 5800 3700 50  0001 C CNN
	1    5800 3700
	1    0    0    -1  
$EndComp
$Comp
L power:+3V3 #PWR0108
U 1 1 600A0EB1
P 5550 4500
F 0 "#PWR0108" H 5550 4350 50  0001 C CNN
F 1 "+3V3" H 5565 4673 50  0000 C CNN
F 2 "" H 5550 4500 50  0001 C CNN
F 3 "" H 5550 4500 50  0001 C CNN
	1    5550 4500
	1    0    0    -1  
$EndComp
$Comp
L power:GND #PWR0109
U 1 1 600A0EB8
P 5450 4400
F 0 "#PWR0109" H 5450 4150 50  0001 C CNN
F 1 "GND" H 5455 4227 50  0000 C CNN
F 2 "" H 5450 4400 50  0001 C CNN
F 3 "" H 5450 4400 50  0001 C CNN
	1    5450 4400
	1    0    0    -1  
$EndComp
Wire Wire Line
	5300 4400 5450 4400
Wire Wire Line
	5300 4500 5550 4500
$Comp
L power:+3V3 #PWR0110
U 1 1 600BFE42
P 6600 4650
F 0 "#PWR0110" H 6600 4500 50  0001 C CNN
F 1 "+3V3" H 6615 4823 50  0000 C CNN
F 2 "" H 6600 4650 50  0001 C CNN
F 3 "" H 6600 4650 50  0001 C CNN
	1    6600 4650
	1    0    0    -1  
$EndComp
$Comp
L power:GND #PWR0111
U 1 1 600BFE49
P 6600 4950
F 0 "#PWR0111" H 6600 4700 50  0001 C CNN
F 1 "GND" H 6605 4777 50  0000 C CNN
F 2 "" H 6600 4950 50  0001 C CNN
F 3 "" H 6600 4950 50  0001 C CNN
	1    6600 4950
	1    0    0    -1  
$EndComp
Wire Wire Line
	7150 4350 7300 4350
$Comp
L Device:CP C1
U 1 1 600BBF1F
P 6600 4800
F 0 "C1" H 6800 4850 50  0000 R CNN
F 1 "47uF" H 6900 4750 50  0000 R CNN
F 2 "Capacitor_THT:CP_Radial_D6.3mm_P2.50mm" H 6638 4650 50  0001 C CNN
F 3 "~" H 6600 4800 50  0001 C CNN
	1    6600 4800
	-1   0    0    -1  
$EndComp
Wire Wire Line
	7000 4800 7100 4800
Wire Wire Line
	7000 4700 7350 4700
$Comp
L Mechanical:MountingHole_Pad H1
U 1 1 600DB45E
P 9250 4350
F 0 "H1" V 9204 4500 50  0000 L CNN
F 1 "MountingHole_Pad" V 9295 4500 50  0000 L CNN
F 2 "MountingHole:MountingHole_3.2mm_M3_ISO14580_Pad" H 9250 4350 50  0001 C CNN
F 3 "~" H 9250 4350 50  0001 C CNN
	1    9250 4350
	0    1    1    0   
$EndComp
$Comp
L Mechanical:MountingHole_Pad H2
U 1 1 600DBF63
P 9250 4550
F 0 "H2" V 9204 4700 50  0000 L CNN
F 1 "MountingHole_Pad" V 9295 4700 50  0000 L CNN
F 2 "MountingHole:MountingHole_3.2mm_M3_ISO14580_Pad" H 9250 4550 50  0001 C CNN
F 3 "~" H 9250 4550 50  0001 C CNN
	1    9250 4550
	0    1    1    0   
$EndComp
$Comp
L Mechanical:MountingHole_Pad H3
U 1 1 600DC400
P 9250 4750
F 0 "H3" V 9204 4900 50  0000 L CNN
F 1 "MountingHole_Pad" V 9295 4900 50  0000 L CNN
F 2 "MountingHole:MountingHole_3.2mm_M3_ISO14580_Pad" H 9250 4750 50  0001 C CNN
F 3 "~" H 9250 4750 50  0001 C CNN
	1    9250 4750
	0    1    1    0   
$EndComp
$Comp
L Mechanical:MountingHole_Pad H4
U 1 1 600DCCDF
P 9250 4950
F 0 "H4" V 9204 5100 50  0000 L CNN
F 1 "MountingHole_Pad" V 9295 5100 50  0000 L CNN
F 2 "MountingHole:MountingHole_3.2mm_M3_ISO14580_Pad" H 9250 4950 50  0001 C CNN
F 3 "~" H 9250 4950 50  0001 C CNN
	1    9250 4950
	0    1    1    0   
$EndComp
$Comp
L power:GND #PWR0112
U 1 1 600DD1F7
P 9100 5000
F 0 "#PWR0112" H 9100 4750 50  0001 C CNN
F 1 "GND" H 9105 4827 50  0000 C CNN
F 2 "" H 9100 5000 50  0001 C CNN
F 3 "" H 9100 5000 50  0001 C CNN
	1    9100 5000
	1    0    0    -1  
$EndComp
Wire Wire Line
	9150 4350 9100 4350
Wire Wire Line
	9100 4350 9100 4550
Wire Wire Line
	9150 4950 9100 4950
Connection ~ 9100 4950
Wire Wire Line
	9100 4950 9100 5000
Wire Wire Line
	9150 4750 9100 4750
Connection ~ 9100 4750
Wire Wire Line
	9100 4750 9100 4950
Wire Wire Line
	9150 4550 9100 4550
Connection ~ 9100 4550
Wire Wire Line
	9100 4550 9100 4750
Wire Notes Line
	8950 5250 10150 5250
Wire Notes Line
	10150 5250 10150 4200
Wire Notes Line
	10150 4200 8950 4200
Wire Notes Line
	8950 4200 8950 5250
Text Label 7150 4700 0    50   ~ 0
L
Text Label 7150 4900 0    50   ~ 0
N
$Comp
L Connector:Conn_01x05_Male ThermoCouple2
U 1 1 60196007
P 7300 3400
F 0 "ThermoCouple2" H 7272 3378 50  0000 R CNN
F 1 "Conn_01x05_Male" H 7272 3423 50  0001 R CNN
F 2 "Connector_PinHeader_2.54mm:PinHeader_1x05_P2.54mm_Vertical" H 7300 3400 50  0001 C CNN
F 3 "~" H 7300 3400 50  0001 C CNN
	1    7300 3400
	-1   0    0    -1  
$EndComp
$Comp
L Connector:Conn_01x05_Male ThermoCouple1
U 1 1 6019A683
P 7300 2650
F 0 "ThermoCouple1" H 7272 2628 50  0000 R CNN
F 1 "Conn_01x05_Male" H 7272 2673 50  0001 R CNN
F 2 "Connector_PinHeader_2.54mm:PinHeader_1x05_P2.54mm_Vertical" H 7300 2650 50  0001 C CNN
F 3 "~" H 7300 2650 50  0001 C CNN
	1    7300 2650
	-1   0    0    -1  
$EndComp
$Comp
L power:GND #PWR0113
U 1 1 6019B618
P 7000 3600
F 0 "#PWR0113" H 7000 3350 50  0001 C CNN
F 1 "GND" H 7005 3427 50  0000 C CNN
F 2 "" H 7000 3600 50  0001 C CNN
F 3 "" H 7000 3600 50  0001 C CNN
	1    7000 3600
	1    0    0    -1  
$EndComp
$Comp
L power:GND #PWR0114
U 1 1 6019F20F
P 7000 2850
F 0 "#PWR0114" H 7000 2600 50  0001 C CNN
F 1 "GND" H 7005 2677 50  0000 C CNN
F 2 "" H 7000 2850 50  0001 C CNN
F 3 "" H 7000 2850 50  0001 C CNN
	1    7000 2850
	1    0    0    -1  
$EndComp
Wire Wire Line
	7000 2850 7100 2850
Wire Wire Line
	7100 3600 7000 3600
Text GLabel 7000 2550 0    50   Input ~ 0
T1
Wire Wire Line
	7000 2550 7100 2550
Wire Wire Line
	7000 3300 7100 3300
Text GLabel 7000 3300 0    50   Input ~ 0
T2
$Comp
L power:+3V3 #PWR0115
U 1 1 601A49DB
P 6600 3500
F 0 "#PWR0115" H 6600 3350 50  0001 C CNN
F 1 "+3V3" H 6615 3673 50  0000 C CNN
F 2 "" H 6600 3500 50  0001 C CNN
F 3 "" H 6600 3500 50  0001 C CNN
	1    6600 3500
	1    0    0    -1  
$EndComp
$Comp
L power:+3V3 #PWR0116
U 1 1 601A6E74
P 6600 2750
F 0 "#PWR0116" H 6600 2600 50  0001 C CNN
F 1 "+3V3" H 6615 2923 50  0000 C CNN
F 2 "" H 6600 2750 50  0001 C CNN
F 3 "" H 6600 2750 50  0001 C CNN
	1    6600 2750
	1    0    0    -1  
$EndComp
Text GLabel 7100 2450 0    50   Input ~ 0
SPI_CLK
Text GLabel 7100 2650 0    50   Input ~ 0
SPI_MISO
Text GLabel 7100 3400 0    50   Input ~ 0
SPI_MISO
Text GLabel 7100 3200 0    50   Input ~ 0
SPI_CLK
Wire Wire Line
	6600 3500 7100 3500
Wire Wire Line
	6600 2750 7100 2750
Wire Notes Line
	6250 3850 6250 2300
Wire Notes Line
	6250 2300 8400 2300
Wire Notes Line
	6250 3850 8400 3850
Wire Notes Line
	8400 3850 8400 2300
$Comp
L Device:R R1
U 1 1 601B5F66
P 7950 2900
F 0 "R1" V 7850 2900 50  0000 C CNN
F 1 "1k" V 8050 2900 50  0000 C CNN
F 2 "Resistor_THT:R_Axial_DIN0207_L6.3mm_D2.5mm_P10.16mm_Horizontal" V 7880 2900 50  0001 C CNN
F 3 "~" H 7950 2900 50  0001 C CNN
	1    7950 2900
	0    1    1    0   
$EndComp
$Comp
L Device:R R2
U 1 1 601B7F63
P 7950 3200
F 0 "R2" V 7850 3200 50  0000 C CNN
F 1 "1k" V 8050 3200 50  0000 C CNN
F 2 "Resistor_THT:R_Axial_DIN0207_L6.3mm_D2.5mm_P10.16mm_Horizontal" V 7880 3200 50  0001 C CNN
F 3 "~" H 7950 3200 50  0001 C CNN
	1    7950 3200
	0    1    1    0   
$EndComp
$Comp
L power:GND #PWR0117
U 1 1 601B86D8
P 8250 3200
F 0 "#PWR0117" H 8250 2950 50  0001 C CNN
F 1 "GND" H 8255 3027 50  0000 C CNN
F 2 "" H 8250 3200 50  0001 C CNN
F 3 "" H 8250 3200 50  0001 C CNN
	1    8250 3200
	1    0    0    -1  
$EndComp
Wire Wire Line
	8100 2900 8250 2900
Wire Wire Line
	8250 2900 8250 3200
Wire Wire Line
	8250 3200 8100 3200
Connection ~ 8250 3200
Text GLabel 7800 3200 0    50   Input ~ 0
T2
Text GLabel 7800 2900 0    50   Input ~ 0
T1
Text GLabel 5300 3800 2    50   Input ~ 0
SPI_CLK
Text GLabel 5300 3900 2    50   Input ~ 0
SPI_MISO
Wire Wire Line
	5300 3700 5800 3700
$Comp
L Connector:Conn_01x04_Male J3
U 1 1 601BFB2D
P 5550 5200
F 0 "J3" H 5522 5082 50  0000 R CNN
F 1 "SPI" H 5522 5173 50  0000 R CNN
F 2 "Connector_PinHeader_2.54mm:PinHeader_1x04_P2.54mm_Vertical" H 5550 5200 50  0001 C CNN
F 3 "~" H 5550 5200 50  0001 C CNN
	1    5550 5200
	-1   0    0    1   
$EndComp
Text GLabel 5350 5000 0    50   Input ~ 0
SPI_CLK
Text GLabel 5350 5100 0    50   Input ~ 0
SPI_MISO
Text GLabel 5300 4000 2    50   Input ~ 0
SPI_MOSI
Text GLabel 5300 4100 2    50   Input ~ 0
SPI_CS
Text GLabel 5350 5200 0    50   Input ~ 0
SPI_MOSI
Text GLabel 5350 5300 0    50   Input ~ 0
SPI_CS
$Comp
L Connector:Screw_Terminal_01x02 J2
U 1 1 601C38C2
P 4450 5100
F 0 "J2" H 4530 5092 50  0000 L CNN
F 1 "SSR" H 4530 5001 50  0000 L CNN
F 2 "TerminalBlock:TerminalBlock_bornier-2_P5.08mm" H 4450 5100 50  0001 C CNN
F 3 "~" H 4450 5100 50  0001 C CNN
	1    4450 5100
	-1   0    0    -1  
$EndComp
$Comp
L power:GND #PWR0118
U 1 1 601C5175
P 4650 5200
F 0 "#PWR0118" H 4650 4950 50  0001 C CNN
F 1 "GND" H 4655 5027 50  0000 C CNN
F 2 "" H 4650 5200 50  0001 C CNN
F 3 "" H 4650 5200 50  0001 C CNN
	1    4650 5200
	1    0    0    -1  
$EndComp
Text GLabel 4650 5100 2    50   Input ~ 0
SSR
Text GLabel 5300 3100 2    50   Input ~ 0
SSR
$Comp
L Device:R R3
U 1 1 601D67A0
P 7950 2550
F 0 "R3" V 7850 2550 50  0000 C CNN
F 1 "1k" V 8050 2550 50  0000 C CNN
F 2 "Resistor_THT:R_Axial_DIN0207_L6.3mm_D2.5mm_P10.16mm_Horizontal" V 7880 2550 50  0001 C CNN
F 3 "~" H 7950 2550 50  0001 C CNN
	1    7950 2550
	0    1    1    0   
$EndComp
$Comp
L power:+3V3 #PWR01
U 1 1 601D743D
P 8200 2550
F 0 "#PWR01" H 8200 2400 50  0001 C CNN
F 1 "+3V3" H 8215 2723 50  0000 C CNN
F 2 "" H 8200 2550 50  0001 C CNN
F 3 "" H 8200 2550 50  0001 C CNN
	1    8200 2550
	1    0    0    -1  
$EndComp
Wire Wire Line
	8100 2550 8200 2550
Text GLabel 7800 2550 0    50   Input ~ 0
SPI_MISO
$EndSCHEMATC
